car_parm.vcd
$date
	Fri Aug 25 17:05:12 2023
$end
$version
	Icarus Verilog
$end
$timescale
	1ps
$end
$scope module test_bench $end
$var wire 4 ! space_utilized [3:0] $end
$var wire 4 " space_available [3:0] $end
$var wire 1 # red_light $end
$var wire 7 $ hex_2 [6:0] $end
$var wire 7 % hex_1 [6:0] $end
$var wire 1 & green_light $end
$var wire 4 ' count_cars [3:0] $end
$var reg 1 ( clk $end
$var reg 2 ) password_1 [1:0] $end
$var reg 2 * password_2 [1:0] $end
$var reg 1 + rst $end
$var reg 1 , sense_entry $end
$var reg 1 - sense_exit $end
$scope module dut $end
$var wire 1 ( clk $end
$var wire 2 . password_1 [1:0] $end
$var wire 2 / password_2 [1:0] $end
$var wire 1 + rst $end
$var wire 1 , sense_entry $end
$var wire 1 - sense_exit $end
$var reg 4 0 count_cars [3:0] $end
$var reg 3 1 current_state [2:0] $end
$var reg 1 & green_light $end
$var reg 7 2 hex_1 [6:0] $end
$var reg 7 3 hex_2 [6:0] $end
$var reg 3 4 next_state [2:0] $end
$var reg 4 5 overall_space [3:0] $end
$var reg 1 # red_light $end
$var reg 4 6 space_available [3:0] $end
$var reg 4 7 space_utilized [3:0] $end
$var reg 2 8 wait_time [1:0] $end
$upscope $end
$upscope $end
$enddefinitions $end
#0
$dumpvars
b0 8
b0 7
b1000 6
b1000 5
b0 4
bx 3
bx 2
b0 1
b0 0
b0 /
b0 .
0-
0,
1+
b0 *
b0 )
1(
b0 '
x&
bx %
bx $
x#
b1000 "
b0 !
$end
#5000
0(
#10000
b0 $
b0 3
b0 %
b0 2
0#
0&
b1 '
b1 0
b1 !
b1 7
b111 "
b111 6
b1 4
1(
b1 *
b1 /
b1 )
b1 .
1,
0+
#15000
0(
#20000
b1 1
b10 '
b10 0
b10 !
b10 7
b110 "
b110 6
1(
#25000
0(
#30000
b110111 $
b110111 3
b1111001 %
b1111001 2
1&
b1 8
b11 '
b11 0
b11 !
b11 7
b101 "
b101 6
1(
#35000
0(
#40000
b100 '
b100 0
b100 !
b100 7
b100 "
b100 6
b10 8
0&
1(
#45000
0(
#50000
1&
b11 8
b101 '
b101 0
b101 !
b101 7
b11 "
b11 6
1(
#55000
0(
#60000
b110 '
b110 0
b110 !
b110 7
b10 "
b10 6
b0 8
0&
1(
#65000
0(
#70000
1&
b1 8
b111 '
b111 0
b111 !
b111 7
b1 "
b1 6
1(
#75000
0(
#80000
b1000 '
b1000 0
b1000 !
b1000 7
b0 "
b0 6
b10 8
0&
1(
#85000
0(
#90000
1&
b11 8
b111 '
b111 0
b111 !
b111 7
b1 "
b1 6
1(
0,
1-
#95000
0(
#100000
b110 '
b110 0
b110 !
b110 7
b10 "
b10 6
b0 8
0&
1(
#105000
0(
#110000
1&
b1 8
b101 '
b101 0
b101 !
b101 7
b11 "
b11 6
1(
#115000
0(
#120000
b100 '
b100 0
b100 !
b100 7
b100 "
b100 6
b10 8
0&
1(
#125000
0(
#130000
1&
b11 8
b11 '
b11 0
b11 !
b11 7
b101 "
b101 6
1(
#135000
0(
#140000
b10 '
b10 0
b10 !
b10 7
b110 "
b110 6
b0 8
0&
1(
#145000
0(
#150000
1&
b1 8
b1 '
b1 0
b1 !
b1 7
b111 "
b111 6
1(
